{
  "project_info": {
    "project_number": "209590712847",
    "firebase_url": "https://mdbsocials-359c0.firebaseio.com",
    "project_id": "mdbsocials-359c0",
    "storage_bucket": "mdbsocials-359c0.appspot.com"
  },
  "client": [
    {
      "client_info": {
        "mobilesdk_app_id": "1:209590712847:android:27facf8ae3122ea2",
        "android_client_info": {
          "package_name": "com.solution.mdb.week3solution"
        }
      },
      "oauth_client": [
        {
          "client_id": "209590712847-eeqhiouiuoshpns23ojcak4tnc4o4gi5.apps.googleusercontent.com",
          "client_type": 3
        }
      ],
      "api_key": [
        {
          "current_key": "AIzaSyBfuKfbUqnYVXSW4rE1PMcZVBUflVeKFk0"
        }
      ],
      "services": {
        "analytics_service": {
          "status": 1
        },
        "appinvite_service": {
          "status": 1,
          "other_platform_oauth_client": []
        },
        "ads_service": {
          "status": 2
        }
      }
    }
  ],
  "configuration_version": "1"
}